%YAML 1.1
%TAG !u! tag:unity3d.com,2011:
--- !u!114 &11400000
MonoBehaviour:
  m_ObjectHideFlags: 0
  m_PrefabParentObject: {fileID: 0}
  m_PrefabInternal: {fileID: 0}
  m_GameObject: {fileID: 0}
  m_Enabled: 1
  m_EditorHideFlags: 0
  m_Script: {fileID: 11500000, guid: 023ff69e0ba03df46b4bc10002ec0a53, type: 3}
  m_Name: RangedFavorBro
  m_EditorClassIdentifier: 
  moduleName: Felenor the elf king
  favoredClasificationEntries:
  - classification: 1
    signifiganceOfClassifiation: 2.5
