%YAML 1.1
%TAG !u! tag:unity3d.com,2011:
--- !u!114 &11400000
MonoBehaviour:
  m_ObjectHideFlags: 0
  m_PrefabParentObject: {fileID: 0}
  m_PrefabInternal: {fileID: 0}
  m_GameObject: {fileID: 0}
  m_Enabled: 1
  m_EditorHideFlags: 0
  m_Script: {fileID: 11500000, guid: 184584c086d4ace4784be87c1d535e6e, type: 3}
  m_Name: RangedUnit
  m_EditorClassIdentifier: 
  PrefabsThatUseThisWeapon:
  - {fileID: 0}
  weaponUiArt: {fileID: 21300000, guid: 415c04398811f714b98eff21776119ff, type: 3}
  weaponName: 
  damageRange:
    minValue: 43
    maxValue: 48
  attacksSpeed: 0.6
  weaponRange: 150
  hasMinimumRange: 0
  minimumRange: 0
  canAttackTypes: 0
  isRanged: 1
  hasMultiTarget: 0
  numberOfAdditional: 0
  multiTargetDamageMultiplier: 0
  multiTargetRange: 0
  rangedProjectile: {fileID: 1243082890572294, guid: 244f94b6a50885e429f452eea88db59a,
    type: 2}
  usesProjectile: 1
  dealsAoeDamage: 0
  aoeRange: 0
  aoeDamageMultiplier: 0
  aoeDamageSpreadMode: 0
  aoeSpreadCurve:
    serializedVersion: 2
    m_Curve: []
    m_PreInfinity: 2
    m_PostInfinity: 2
    m_RotationOrder: 4
  attackAnimation: []
  critAnimation: []
  attackSound: []
  critSound: []
  critChance: 0.1
  critDamageMultiplier: 1
  weaponFlavorText: 
  AreaOfEffectTesters: []
