%YAML 1.1
%TAG !u! tag:unity3d.com,2011:
--- !u!1001 &100100000
Prefab:
  m_ObjectHideFlags: 1
  serializedVersion: 2
  m_Modification:
    m_TransformParent: {fileID: 0}
    m_Modifications: []
    m_RemovedComponents: []
  m_ParentPrefab: {fileID: 0}
  m_RootGameObject: {fileID: 1590968831170802}
  m_IsPrefabParent: 1
--- !u!1 &1590968831170802
GameObject:
  m_ObjectHideFlags: 0
  m_PrefabParentObject: {fileID: 0}
  m_PrefabInternal: {fileID: 100100000}
  serializedVersion: 5
  m_Component:
  - component: {fileID: 4628619234725820}
  - component: {fileID: 114248248112000834}
  m_Layer: 0
  m_Name: Player1BattlefieldViewPoint
  m_TagString: Untagged
  m_Icon: {fileID: -3701561207968579530, guid: 0000000000000000d000000000000000, type: 0}
  m_NavMeshLayer: 0
  m_StaticEditorFlags: 0
  m_IsActive: 1
--- !u!4 &4628619234725820
Transform:
  m_ObjectHideFlags: 1
  m_PrefabParentObject: {fileID: 0}
  m_PrefabInternal: {fileID: 100100000}
  m_GameObject: {fileID: 1590968831170802}
  m_LocalRotation: {x: 0, y: 0.8241262, z: 0, w: 0.56640637}
  m_LocalPosition: {x: -45, y: 19, z: 16}
  m_LocalScale: {x: 1, y: 1, z: 1}
  m_Children: []
  m_Father: {fileID: 0}
  m_RootOrder: 0
  m_LocalEulerAnglesHint: {x: 0, y: 111, z: 0}
--- !u!114 &114248248112000834
MonoBehaviour:
  m_ObjectHideFlags: 1
  m_PrefabParentObject: {fileID: 0}
  m_PrefabInternal: {fileID: 100100000}
  m_GameObject: {fileID: 1590968831170802}
  m_Enabled: 1
  m_EditorHideFlags: 0
  m_Script: {fileID: 11500000, guid: 6438f9d2a2776c64d96f57d705a8bee7, type: 3}
  m_Name: 
  m_EditorClassIdentifier: 
  mySnap: 0
  playerID: 0
  setToAddThis: {fileID: 11400000, guid: 904b61a074e3b494c88e97959e8134e0, type: 2}
